apb_dv/transcript
# Reading pref.tcl
# OpenFile C:/Users/User/Desktop/ulka_training/apb_dv/tb_top1.sv
vlog tb_top1.sv
# Model Technology ModelSim - Intel FPGA Edition vlog 2020.1 Compiler 2020.02 Feb 28 2020
# Start time: 22:56:50 on Dec 18,2024
# vlog -reportprogress 300 tb_top1.sv 
# -- Compiling module apb_slave
# -- Compiling interface apb_interface
# -- Compiling package tb_top1_sv_unit
# -- Compiling module tb_top1
# 
# Top level modules:
# 	tb_top1
# End time: 22:56:51 on Dec 18,2024, Elapsed time: 0:00:01
# Errors: 0, Warnings: 0
vsim tb_top1
# vsim tb_top1 
# Start time: 22:57:00 on Dec 18,2024
# Loading sv_std.std
# Loading work.tb_top1_sv_unit
# Loading work.tb_top1
# Loading work.apb_interface
# Loading work.apb_slave
# ** Warning: (vsim-2685) [TFMPC] - Too few port connections for 'DUT'.  Expected 9, found 8.
#    Time: 0 ns  Iteration: 0  Instance: /tb_top1/DUT File: tb_top1.sv Line: 14
# ** Warning: (vsim-3722) tb_top1.sv(14): [TFMPC] - Missing connection for port 'pready'.
add wave -position insertpoint  \
sim:/tb_top1/pclk \
sim:/tb_top1/test
run -all
# 'PASS' EXP_ADDR : 0 , ACT_ADDR : 0 , EXP_DATA : 12153524, ACT_DATA : 12153524 
# 'PASS' EXP_ADDR : 1 , ACT_ADDR : 1 , EXP_DATA : c0895e81, ACT_DATA : c0895e81 
# 'PASS' EXP_ADDR : 2 , ACT_ADDR : 2 , EXP_DATA : 8484d609, ACT_DATA : 8484d609 
# 'PASS' EXP_ADDR : 3 , ACT_ADDR : 3 , EXP_DATA : b1f05663, ACT_DATA : b1f05663 
# 'PASS' EXP_ADDR : 4 , ACT_ADDR : 4 , EXP_DATA : 6b97b0d, ACT_DATA : 6b97b0d 
# 'PASS' EXP_ADDR : 5 , ACT_ADDR : 5 , EXP_DATA : 46df998d, ACT_DATA : 46df998d 
# 'PASS' EXP_ADDR : 6 , ACT_ADDR : 6 , EXP_DATA : b2c28465, ACT_DATA : b2c28465 
# 'PASS' EXP_ADDR : 7 , ACT_ADDR : 7 , EXP_DATA : 89375212, ACT_DATA : 89375212 
# 'PASS' EXP_ADDR : 8 , ACT_ADDR : 8 , EXP_DATA : f3e301, ACT_DATA : f3e301 
# 'PASS' EXP_ADDR : 9 , ACT_ADDR : 9 , EXP_DATA : 6d7cd0d, ACT_DATA : 6d7cd0d 
# 'PASS' EXP_ADDR : a , ACT_ADDR : a , EXP_DATA : 3b23f176, ACT_DATA : 3b23f176 
# 'PASS' EXP_ADDR : b , ACT_ADDR : b , EXP_DATA : 1e8dcd3d, ACT_DATA : 1e8dcd3d 
# 'PASS' EXP_ADDR : c , ACT_ADDR : c , EXP_DATA : 76d457ed, ACT_DATA : 76d457ed 
# 'PASS' EXP_ADDR : d , ACT_ADDR : d , EXP_DATA : 462df78c, ACT_DATA : 462df78c 
# 'PASS' EXP_ADDR : e , ACT_ADDR : e , EXP_DATA : 7cfde9f9, ACT_DATA : 7cfde9f9 
# 'PASS' EXP_ADDR : f , ACT_ADDR : f , EXP_DATA : e33724c6, ACT_DATA : e33724c6 
# 'PASS' EXP_ADDR : 10 , ACT_ADDR : 10 , EXP_DATA : e2f784c5, ACT_DATA : e2f784c5 
# 'PASS' EXP_ADDR : 11 , ACT_ADDR : 11 , EXP_DATA : d513d2aa, ACT_DATA : d513d2aa 
# 'PASS' EXP_ADDR : 12 , ACT_ADDR : 12 , EXP_DATA : 72aff7e5, ACT_DATA : 72aff7e5 
# 'PASS' EXP_ADDR : 13 , ACT_ADDR : 13 , EXP_DATA : bbd27277, ACT_DATA : bbd27277 
# 'PASS' EXP_ADDR : 14 , ACT_ADDR : 14 , EXP_DATA : 8932d612, ACT_DATA : 8932d612 
# 'PASS' EXP_ADDR : 15 , ACT_ADDR : 15 , EXP_DATA : 47ecdb8f, ACT_DATA : 47ecdb8f 
# 'PASS' EXP_ADDR : 16 , ACT_ADDR : 16 , EXP_DATA : 793069f2, ACT_DATA : 793069f2 
# 'PASS' EXP_ADDR : 17 , ACT_ADDR : 17 , EXP_DATA : e77696ce, ACT_DATA : e77696ce 
# 'PASS' EXP_ADDR : 18 , ACT_ADDR : 18 , EXP_DATA : f4007ae8, ACT_DATA : f4007ae8 
# 'PASS' EXP_ADDR : 19 , ACT_ADDR : 19 , EXP_DATA : e2ca4ec5, ACT_DATA : e2ca4ec5 
# 'PASS' EXP_ADDR : 1a , ACT_ADDR : 1a , EXP_DATA : 2e58495c, ACT_DATA : 2e58495c 
# 'PASS' EXP_ADDR : 1b , ACT_ADDR : 1b , EXP_DATA : de8e28bd, ACT_DATA : de8e28bd 
# 'PASS' EXP_ADDR : 1c , ACT_ADDR : 1c , EXP_DATA : 96ab582d, ACT_DATA : 96ab582d 
# 'PASS' EXP_ADDR : 1d , ACT_ADDR : 1d , EXP_DATA : b2a72665, ACT_DATA : b2a72665 
# 'PASS' EXP_ADDR : 1e , ACT_ADDR : 1e , EXP_DATA : b1ef6263, ACT_DATA : b1ef6263 
# 'PASS' EXP_ADDR : 1f , ACT_ADDR : 1f , EXP_DATA : 573870a, ACT_DATA : 573870a 
# 'PASS' EXP_ADDR : 20 , ACT_ADDR : 20 , EXP_DATA : c03b2280, ACT_DATA : c03b2280 
# 'PASS' EXP_ADDR : 21 , ACT_ADDR : 21 , EXP_DATA : 10642120, ACT_DATA : 10642120 
# 'PASS' EXP_ADDR : 22 , ACT_ADDR : 22 , EXP_DATA : 557845aa, ACT_DATA : 557845aa 
# 'PASS' EXP_ADDR : 23 , ACT_ADDR : 23 , EXP_DATA : cecccc9d, ACT_DATA : cecccc9d 
# 'PASS' EXP_ADDR : 24 , ACT_ADDR : 24 , EXP_DATA : cb203e96, ACT_DATA : cb203e96 
# 'PASS' EXP_ADDR : 25 , ACT_ADDR : 25 , EXP_DATA : 8983b813, ACT_DATA : 8983b813 
# 'PASS' EXP_ADDR : 26 , ACT_ADDR : 26 , EXP_DATA : 86bc380d, ACT_DATA : 86bc380d 
# 'PASS' EXP_ADDR : 27 , ACT_ADDR : 27 , EXP_DATA : a9a7d653, ACT_DATA : a9a7d653 
# 'PASS' EXP_ADDR : 28 , ACT_ADDR : 28 , EXP_DATA : 359fdd6b, ACT_DATA : 359fdd6b 
# 'PASS' EXP_ADDR : 29 , ACT_ADDR : 29 , EXP_DATA : eaa62ad5, ACT_DATA : eaa62ad5 
# 'PASS' EXP_ADDR : 2a , ACT_ADDR : 2a , EXP_DATA : 81174a02, ACT_DATA : 81174a02 
# 'PASS' EXP_ADDR : 2b , ACT_ADDR : 2b , EXP_DATA : d7563eae, ACT_DATA : d7563eae 
# 'PASS' EXP_ADDR : 2c , ACT_ADDR : 2c , EXP_DATA : effe91d, ACT_DATA : effe91d 
# 'PASS' EXP_ADDR : 2d , ACT_ADDR : 2d , EXP_DATA : e7c572cf, ACT_DATA : e7c572cf 
# 'PASS' EXP_ADDR : 2e , ACT_ADDR : 2e , EXP_DATA : 11844923, ACT_DATA : 11844923 
# 'PASS' EXP_ADDR : 2f , ACT_ADDR : 2f , EXP_DATA : 509650a, ACT_DATA : 509650a 
# 'PASS' EXP_ADDR : 30 , ACT_ADDR : 30 , EXP_DATA : e5730aca, ACT_DATA : e5730aca 
# 'PASS' EXP_ADDR : 31 , ACT_ADDR : 31 , EXP_DATA : 9e314c3c, ACT_DATA : 9e314c3c 
# 'PASS' EXP_ADDR : 32 , ACT_ADDR : 32 , EXP_DATA : 7968bdf2, ACT_DATA : 7968bdf2 
# 'PASS' EXP_ADDR : 33 , ACT_ADDR : 33 , EXP_DATA : 452e618a, ACT_DATA : 452e618a 
# 'PASS' EXP_ADDR : 34 , ACT_ADDR : 34 , EXP_DATA : 20c4b341, ACT_DATA : 20c4b341 
# 'PASS' EXP_ADDR : 35 , ACT_ADDR : 35 , EXP_DATA : ec4b34d8, ACT_DATA : ec4b34d8 
# 'PASS' EXP_ADDR : 36 , ACT_ADDR : 36 , EXP_DATA : 3c20f378, ACT_DATA : 3c20f378 
# 'PASS' EXP_ADDR : 37 , ACT_ADDR : 37 , EXP_DATA : c48a1289, ACT_DATA : c48a1289 
# 'PASS' EXP_ADDR : 38 , ACT_ADDR : 38 , EXP_DATA : 75c50deb, ACT_DATA : 75c50deb 
# 'PASS' EXP_ADDR : 39 , ACT_ADDR : 39 , EXP_DATA : 5b0265b6, ACT_DATA : 5b0265b6 
# 'PASS' EXP_ADDR : 3a , ACT_ADDR : 3a , EXP_DATA : 634bf9c6, ACT_DATA : 634bf9c6 
# 'PASS' EXP_ADDR : 3b , ACT_ADDR : 3b , EXP_DATA : 571513ae, ACT_DATA : 571513ae 
# 'PASS' EXP_ADDR : 3c , ACT_ADDR : 3c , EXP_DATA : de7502bc, ACT_DATA : de7502bc 
# 'PASS' EXP_ADDR : 3d , ACT_ADDR : 3d , EXP_DATA : 150fdd2a, ACT_DATA : 150fdd2a 
# 'PASS' EXP_ADDR : 3e , ACT_ADDR : 3e , EXP_DATA : 85d79a0b, ACT_DATA : 85d79a0b 
# 'PASS' EXP_ADDR : 3f , ACT_ADDR : 3f , EXP_DATA : b897be71, ACT_DATA : b897be71 
# 'PASS' EXP_ADDR : 40 , ACT_ADDR : 40 , EXP_DATA : 42f24185, ACT_DATA : 42f24185 
# 'PASS' EXP_ADDR : 41 , ACT_ADDR : 41 , EXP_DATA : 27f2554f, ACT_DATA : 27f2554f 
# 'PASS' EXP_ADDR : 42 , ACT_ADDR : 42 , EXP_DATA : 9dcc603b, ACT_DATA : 9dcc603b 
# 'PASS' EXP_ADDR : 43 , ACT_ADDR : 43 , EXP_DATA : 1d06333a, ACT_DATA : 1d06333a 
# 'PASS' EXP_ADDR : 44 , ACT_ADDR : 44 , EXP_DATA : bf23327e, ACT_DATA : bf23327e 
# 'PASS' EXP_ADDR : 45 , ACT_ADDR : 45 , EXP_DATA : aaa4b15, ACT_DATA : aaa4b15 
# 'PASS' EXP_ADDR : 46 , ACT_ADDR : 46 , EXP_DATA : 78d99bf1, ACT_DATA : 78d99bf1 
# 'PASS' EXP_ADDR : 47 , ACT_ADDR : 47 , EXP_DATA : 6c9c4bd9, ACT_DATA : 6c9c4bd9 
# 'PASS' EXP_ADDR : 48 , ACT_ADDR : 48 , EXP_DATA : 31230762, ACT_DATA : 31230762 
# 'PASS' EXP_ADDR : 49 , ACT_ADDR : 49 , EXP_DATA : 2635fb4c, ACT_DATA : 2635fb4c 
# 'PASS' EXP_ADDR : 4a , ACT_ADDR : 4a , EXP_DATA : 4fa1559f, ACT_DATA : 4fa1559f 
# 'PASS' EXP_ADDR : 4b , ACT_ADDR : 4b , EXP_DATA : 47b9a18f, ACT_DATA : 47b9a18f 
# 'PASS' EXP_ADDR : 4c , ACT_ADDR : 4c , EXP_DATA : 7c6da9f8, ACT_DATA : 7c6da9f8 
# 'PASS' EXP_ADDR : 4d , ACT_ADDR : 4d , EXP_DATA : dbcd60b7, ACT_DATA : dbcd60b7 
# 'PASS' EXP_ADDR : 4e , ACT_ADDR : 4e , EXP_DATA : cfc4569f, ACT_DATA : cfc4569f 
# 'PASS' EXP_ADDR : 4f , ACT_ADDR : 4f , EXP_DATA : ae7d945c, ACT_DATA : ae7d945c 
# 'PASS' EXP_ADDR : 50 , ACT_ADDR : 50 , EXP_DATA : adcbc05b, ACT_DATA : adcbc05b 
# 'PASS' EXP_ADDR : 51 , ACT_ADDR : 51 , EXP_DATA : 44de3789, ACT_DATA : 44de3789 
# 'PASS' EXP_ADDR : 52 , ACT_ADDR : 52 , EXP_DATA : a4ae3249, ACT_DATA : a4ae3249 
# 'PASS' EXP_ADDR : 53 , ACT_ADDR : 53 , EXP_DATA : e8233ed0, ACT_DATA : e8233ed0 
# 'PASS' EXP_ADDR : 54 , ACT_ADDR : 54 , EXP_DATA : ebfec0d7, ACT_DATA : ebfec0d7 
# 'PASS' EXP_ADDR : 55 , ACT_ADDR : 55 , EXP_DATA : a8c7fc51, ACT_DATA : a8c7fc51 
# 'PASS' EXP_ADDR : 56 , ACT_ADDR : 56 , EXP_DATA : 4b212f96, ACT_DATA : 4b212f96 
# 'PASS' EXP_ADDR : 57 , ACT_ADDR : 57 , EXP_DATA : 61d7f0c, ACT_DATA : 61d7f0c 
# 'PASS' EXP_ADDR : 58 , ACT_ADDR : 58 , EXP_DATA : e12ccec2, ACT_DATA : e12ccec2 
# 'PASS' EXP_ADDR : 59 , ACT_ADDR : 59 , EXP_DATA : 6457edc8, ACT_DATA : 6457edc8 
# 'PASS' EXP_ADDR : 5a , ACT_ADDR : 5a , EXP_DATA : bb825a77, ACT_DATA : bb825a77 
# 'PASS' EXP_ADDR : 5b , ACT_ADDR : 5b , EXP_DATA : 1ef2ed3d, ACT_DATA : 1ef2ed3d 
# 'PASS' EXP_ADDR : 5c , ACT_ADDR : 5c , EXP_DATA : 90cdb12, ACT_DATA : 90cdb12 
# 'PASS' EXP_ADDR : 5d , ACT_ADDR : 5d , EXP_DATA : bf05007e, ACT_DATA : bf05007e 
# 'PASS' EXP_ADDR : 5e , ACT_ADDR : 5e , EXP_DATA : 36e5816d, ACT_DATA : 36e5816d 
# 'PASS' EXP_ADDR : 5f , ACT_ADDR : 5f , EXP_DATA : 1cd9e739, ACT_DATA : 1cd9e739 
# 'PASS' EXP_ADDR : 60 , ACT_ADDR : 60 , EXP_DATA : fd28f1f, ACT_DATA : fd28f1f 
# 'PASS' EXP_ADDR : 61 , ACT_ADDR : 61 , EXP_DATA : e9ebf6d3, ACT_DATA : e9ebf6d3 
# 'PASS' EXP_ADDR : 62 , ACT_ADDR : 62 , EXP_DATA : 42d92f85, ACT_DATA : 42d92f85 
# 'PASS' EXP_ADDR : 63 , ACT_ADDR : 63 , EXP_DATA : bc148878, ACT_DATA : bc148878 
# 'PASS' EXP_ADDR : 64 , ACT_ADDR : 64 , EXP_DATA : 2dda595b, ACT_DATA : 2dda595b 
# 'PASS' EXP_ADDR : 65 , ACT_ADDR : 65 , EXP_DATA : 248b4b49, ACT_DATA : 248b4b49 
# 'PASS' EXP_ADDR : 66 , ACT_ADDR : 66 , EXP_DATA : 9ff2ae3f, ACT_DATA : 9ff2ae3f 
# 'PASS' EXP_ADDR : 67 , ACT_ADDR : 67 , EXP_DATA : 150caf2a, ACT_DATA : 150caf2a 
# 'PASS' EXP_ADDR : 68 , ACT_ADDR : 68 , EXP_DATA : 2c156358, ACT_DATA : 2c156358 
# 'PASS' EXP_ADDR : 69 , ACT_ADDR : 69 , EXP_DATA : c33f3886, ACT_DATA : c33f3886 
# 'PASS' EXP_ADDR : 6a , ACT_ADDR : 6a , EXP_DATA : c71a0c8e, ACT_DATA : c71a0c8e 
# 'PASS' EXP_ADDR : 6b , ACT_ADDR : 6b , EXP_DATA : ce2ff29c, ACT_DATA : ce2ff29c 
# 'PASS' EXP_ADDR : 6c , ACT_ADDR : 6c , EXP_DATA : 7d3599fa, ACT_DATA : 7d3599fa 
# 'PASS' EXP_ADDR : 6d , ACT_ADDR : 6d , EXP_DATA : 937dbc26, ACT_DATA : 937dbc26 
# 'PASS' EXP_ADDR : 6e , ACT_ADDR : 6e , EXP_DATA : 39961773, ACT_DATA : 39961773 
# 'PASS' EXP_ADDR : 6f , ACT_ADDR : 6f , EXP_DATA : d18bb4a3, ACT_DATA : d18bb4a3 
# 'PASS' EXP_ADDR : 70 , ACT_ADDR : 70 , EXP_DATA : 9799a82f, ACT_DATA : 9799a82f 
# 'PASS' EXP_ADDR : 71 , ACT_ADDR : 71 , EXP_DATA : d9d292b3, ACT_DATA : d9d292b3 
# 'PASS' EXP_ADDR : 72 , ACT_ADDR : 72 , EXP_DATA : afd8565f, ACT_DATA : afd8565f 
# 'PASS' EXP_ADDR : 73 , ACT_ADDR : 73 , EXP_DATA : 22290d44, ACT_DATA : 22290d44 
# 'PASS' EXP_ADDR : 74 , ACT_ADDR : 74 , EXP_DATA : 7bf8fdf7, ACT_DATA : 7bf8fdf7 
# 'PASS' EXP_ADDR : 75 , ACT_ADDR : 75 , EXP_DATA : e59b36cb, ACT_DATA : e59b36cb 
# 'PASS' EXP_ADDR : 76 , ACT_ADDR : 76 , EXP_DATA : f3091ae6, ACT_DATA : f3091ae6 
# 'PASS' EXP_ADDR : 77 , ACT_ADDR : 77 , EXP_DATA : 2d28db5a, ACT_DATA : 2d28db5a 
# 'PASS' EXP_ADDR : 78 , ACT_ADDR : 78 , EXP_DATA : 14cfc129, ACT_DATA : 14cfc129 
# 'PASS' EXP_ADDR : 79 , ACT_ADDR : 79 , EXP_DATA : f682e2ed, ACT_DATA : f682e2ed 
# 'PASS' EXP_ADDR : 7a , ACT_ADDR : 7a , EXP_DATA : ed536cda, ACT_DATA : ed536cda 
# 'PASS' EXP_ADDR : 7b , ACT_ADDR : 7b , EXP_DATA : b29fb665, ACT_DATA : b29fb665 
# 'PASS' EXP_ADDR : 7c , ACT_ADDR : 7c , EXP_DATA : da8ae2b5, ACT_DATA : da8ae2b5 
# 'PASS' EXP_ADDR : 7d , ACT_ADDR : 7d , EXP_DATA : efbe94df, ACT_DATA : efbe94df 
# 'PASS' EXP_ADDR : 7e , ACT_ADDR : 7e , EXP_DATA : 3cf11979, ACT_DATA : 3cf11979 
# 'PASS' EXP_ADDR : 7f , ACT_ADDR : 7f , EXP_DATA : 2231ff44, ACT_DATA : 2231ff44 
# 'PASS' EXP_ADDR : 80 , ACT_ADDR : 80 , EXP_DATA : e8740cd0, ACT_DATA : e8740cd0 
# 'PASS' EXP_ADDR : 81 , ACT_ADDR : 81 , EXP_DATA : 15090b2a, ACT_DATA : 15090b2a 
# 'PASS' EXP_ADDR : 82 , ACT_ADDR : 82 , EXP_DATA : 55f6adab, ACT_DATA : 55f6adab 
# 'PASS' EXP_ADDR : 83 , ACT_ADDR : 83 , EXP_DATA : 76fcf0e, ACT_DATA : 76fcf0e 
# 'PASS' EXP_ADDR : 84 , ACT_ADDR : 84 , EXP_DATA : 6e5daddc, ACT_DATA : 6e5daddc 
# 'PASS' EXP_ADDR : 85 , ACT_ADDR : 85 , EXP_DATA : cd5ebc9a, ACT_DATA : cd5ebc9a 
# 'PASS' EXP_ADDR : 86 , ACT_ADDR : 86 , EXP_DATA : fedf72fd, ACT_DATA : fedf72fd 
# 'PASS' EXP_ADDR : 87 , ACT_ADDR : 87 , EXP_DATA : e1f102c3, ACT_DATA : e1f102c3 
# 'PASS' EXP_ADDR : 88 , ACT_ADDR : 88 , EXP_DATA : 2b0eed56, ACT_DATA : 2b0eed56 
# 'PASS' EXP_ADDR : 89 , ACT_ADDR : 89 , EXP_DATA : 2779e94e, ACT_DATA : 2779e94e 
# 'PASS' EXP_ADDR : 8a , ACT_ADDR : 8a , EXP_DATA : b3d97667, ACT_DATA : b3d97667 
# 'PASS' EXP_ADDR : 8b , ACT_ADDR : 8b , EXP_DATA : 8531340a, ACT_DATA : 8531340a 
# 'PASS' EXP_ADDR : 8c , ACT_ADDR : 8c , EXP_DATA : 5b6fb9b6, ACT_DATA : 5b6fb9b6 
# 'PASS' EXP_ADDR : 8d , ACT_ADDR : 8d , EXP_DATA : 9c0e8a38, ACT_DATA : 9c0e8a38 
# 'PASS' EXP_ADDR : 8e , ACT_ADDR : 8e , EXP_DATA : 3cd18779, ACT_DATA : 3cd18779 
# 'PASS' EXP_ADDR : 8f , ACT_ADDR : 8f , EXP_DATA : dc2bc4b8, ACT_DATA : dc2bc4b8 
# 'PASS' EXP_ADDR : 90 , ACT_ADDR : 90 , EXP_DATA : 4a74bf94, ACT_DATA : 4a74bf94 
# 'PASS' EXP_ADDR : 91 , ACT_ADDR : 91 , EXP_DATA : 49c65d93, ACT_DATA : 49c65d93 
# 'PASS' EXP_ADDR : 92 , ACT_ADDR : 92 , EXP_DATA : 823f2c04, ACT_DATA : 823f2c04 
# 'PASS' EXP_ADDR : 93 , ACT_ADDR : 93 , EXP_DATA : acb7ca59, ACT_DATA : acb7ca59 
# 'PASS' EXP_ADDR : 94 , ACT_ADDR : 94 , EXP_DATA : 6dcb69db, ACT_DATA : 6dcb69db 
# 'PASS' EXP_ADDR : 95 , ACT_ADDR : 95 , EXP_DATA : a6fcde4d, ACT_DATA : a6fcde4d 
# 'PASS' EXP_ADDR : 96 , ACT_ADDR : 96 , EXP_DATA : 6cb0b7d9, ACT_DATA : 6cb0b7d9 
# 'PASS' EXP_ADDR : 97 , ACT_ADDR : 97 , EXP_DATA : b6a4266d, ACT_DATA : b6a4266d 
# 'PASS' EXP_ADDR : 98 , ACT_ADDR : 98 , EXP_DATA : bb45e276, ACT_DATA : bb45e276 
# 'PASS' EXP_ADDR : 99 , ACT_ADDR : 99 , EXP_DATA : 653b49ca, ACT_DATA : 653b49ca 
# 'PASS' EXP_ADDR : 9a , ACT_ADDR : 9a , EXP_DATA : 5b172db6, ACT_DATA : 5b172db6 
# 'PASS' EXP_ADDR : 9b , ACT_ADDR : 9b , EXP_DATA : 4a937195, ACT_DATA : 4a937195 
# 'PASS' EXP_ADDR : 9c , ACT_ADDR : 9c , EXP_DATA : a3071a46, ACT_DATA : a3071a46 
# 'PASS' EXP_ADDR : 9d , ACT_ADDR : 9d , EXP_DATA : 2749b04, ACT_DATA : 2749b04 
# 'PASS' EXP_ADDR : 9e , ACT_ADDR : 9e , EXP_DATA : 7bd261f7, ACT_DATA : 7bd261f7 
# 'PASS' EXP_ADDR : 9f , ACT_ADDR : 9f , EXP_DATA : 34980769, ACT_DATA : 34980769 
# 'PASS' EXP_ADDR : a0 , ACT_ADDR : a0 , EXP_DATA : da6ebab4, ACT_DATA : da6ebab4 
# 'PASS' EXP_ADDR : a1 , ACT_ADDR : a1 , EXP_DATA : 44018d88, ACT_DATA : 44018d88 
# 'PASS' EXP_ADDR : a2 , ACT_ADDR : a2 , EXP_DATA : 147cd928, ACT_DATA : 147cd928 
# 'PASS' EXP_ADDR : a3 , ACT_ADDR : a3 , EXP_DATA : 9690042d, ACT_DATA : 9690042d 
# 'PASS' EXP_ADDR : a4 , ACT_ADDR : a4 , EXP_DATA : e3c530c7, ACT_DATA : e3c530c7 
# 'PASS' EXP_ADDR : a5 , ACT_ADDR : a5 , EXP_DATA : 975c9c2e, ACT_DATA : 975c9c2e 
# 'PASS' EXP_ADDR : a6 , ACT_ADDR : a6 , EXP_DATA : 8477e408, ACT_DATA : 8477e408 
# 'PASS' EXP_ADDR : a7 , ACT_ADDR : a7 , EXP_DATA : e41451c, ACT_DATA : e41451c 
# 'PASS' EXP_ADDR : a8 , ACT_ADDR : a8 , EXP_DATA : fea7a6fd, ACT_DATA : fea7a6fd 
# 'PASS' EXP_ADDR : a9 , ACT_ADDR : a9 , EXP_DATA : 149e0729, ACT_DATA : 149e0729 
# 'PASS' EXP_ADDR : aa , ACT_ADDR : aa , EXP_DATA : 8e37901c, ACT_DATA : 8e37901c 
# 'PASS' EXP_ADDR : ab , ACT_ADDR : ab , EXP_DATA : 43356786, ACT_DATA : 43356786 
# 'PASS' EXP_ADDR : ac , ACT_ADDR : ac , EXP_DATA : ed3408da, ACT_DATA : ed3408da 
# 'PASS' EXP_ADDR : ad , ACT_ADDR : ad , EXP_DATA : 9eb7c63d, ACT_DATA : 9eb7c63d 
# 'PASS' EXP_ADDR : ae , ACT_ADDR : ae , EXP_DATA : 334ea766, ACT_DATA : 334ea766 
# 'PASS' EXP_ADDR : af , ACT_ADDR : af , EXP_DATA : b855c470, ACT_DATA : b855c470 
# 'PASS' EXP_ADDR : b0 , ACT_ADDR : b0 , EXP_DATA : b9f50473, ACT_DATA : b9f50473 
# 'PASS' EXP_ADDR : b1 , ACT_ADDR : b1 , EXP_DATA : 5d7199ba, ACT_DATA : 5d7199ba 
# 'PASS' EXP_ADDR : b2 , ACT_ADDR : b2 , EXP_DATA : 2f3ab35e, ACT_DATA : 2f3ab35e 
# 'PASS' EXP_ADDR : b3 , ACT_ADDR : b3 , EXP_DATA : 7d4779fa, ACT_DATA : 7d4779fa 
# 'PASS' EXP_ADDR : b4 , ACT_ADDR : b4 , EXP_DATA : 6a8e05d5, ACT_DATA : 6a8e05d5 
# 'PASS' EXP_ADDR : b5 , ACT_ADDR : b5 , EXP_DATA : 8d24f61a, ACT_DATA : 8d24f61a 
# 'PASS' EXP_ADDR : b6 , ACT_ADDR : b6 , EXP_DATA : dcf000b9, ACT_DATA : dcf000b9 
# 'PASS' EXP_ADDR : b7 , ACT_ADDR : b7 , EXP_DATA : 1b876137, ACT_DATA : 1b876137 
# 'PASS' EXP_ADDR : b8 , ACT_ADDR : b8 , EXP_DATA : 4b273796, ACT_DATA : 4b273796 
# 'PASS' EXP_ADDR : b9 , ACT_ADDR : b9 , EXP_DATA : 603921c0, ACT_DATA : 603921c0 
# 'PASS' EXP_ADDR : ba , ACT_ADDR : ba , EXP_DATA : 13259f26, ACT_DATA : 13259f26 
# 'PASS' EXP_ADDR : bb , ACT_ADDR : bb , EXP_DATA : db461ab6, ACT_DATA : db461ab6 
# 'PASS' EXP_ADDR : bc , ACT_ADDR : bc , EXP_DATA : 3e99837d, ACT_DATA : 3e99837d 
# 'PASS' EXP_ADDR : bd , ACT_ADDR : bd , EXP_DATA : 6e5f0fdc, ACT_DATA : 6e5f0fdc 
# 'PASS' EXP_ADDR : be , ACT_ADDR : be , EXP_DATA : 43615786, ACT_DATA : 43615786 
# 'PASS' EXP_ADDR : bf , ACT_ADDR : bf , EXP_DATA : 3c03ff78, ACT_DATA : 3c03ff78 
# 'PASS' EXP_ADDR : c0 , ACT_ADDR : c0 , EXP_DATA : 3f5a9b7e, ACT_DATA : 3f5a9b7e 
# 'PASS' EXP_ADDR : c1 , ACT_ADDR : c1 , EXP_DATA : ed8d80db, ACT_DATA : ed8d80db 
# 'PASS' EXP_ADDR : c2 , ACT_ADDR : c2 , EXP_DATA : e7c3b6cf, ACT_DATA : e7c3b6cf 
# 'PASS' EXP_ADDR : c3 , ACT_ADDR : c3 , EXP_DATA : 3ced2b79, ACT_DATA : 3ced2b79 
# 'PASS' EXP_ADDR : c4 , ACT_ADDR : c4 , EXP_DATA : fd28e4fa, ACT_DATA : fd28e4fa 
# 'PASS' EXP_ADDR : c5 , ACT_ADDR : c5 , EXP_DATA : b0bcee61, ACT_DATA : b0bcee61 
# 'PASS' EXP_ADDR : c6 , ACT_ADDR : c6 , EXP_DATA : b940917, ACT_DATA : b940917 
# 'PASS' EXP_ADDR : c7 , ACT_ADDR : c7 , EXP_DATA : d0f578a1, ACT_DATA : d0f578a1 
# 'PASS' EXP_ADDR : c8 , ACT_ADDR : c8 , EXP_DATA : 43779186, ACT_DATA : 43779186 
# 'PASS' EXP_ADDR : c9 , ACT_ADDR : c9 , EXP_DATA : a8639650, ACT_DATA : a8639650 
# 'PASS' EXP_ADDR : ca , ACT_ADDR : ca , EXP_DATA : 7a8c59f5, ACT_DATA : 7a8c59f5 
# 'PASS' EXP_ADDR : cb , ACT_ADDR : cb , EXP_DATA : 9ab48835, ACT_DATA : 9ab48835 
# 'PASS' EXP_ADDR : cc , ACT_ADDR : cc , EXP_DATA : 949a8a29, ACT_DATA : 949a8a29 
# 'PASS' EXP_ADDR : cd , ACT_ADDR : cd , EXP_DATA : 60b175c1, ACT_DATA : 60b175c1 
# 'PASS' EXP_ADDR : ce , ACT_ADDR : ce , EXP_DATA : e2e574c5, ACT_DATA : e2e574c5 
# 'PASS' EXP_ADDR : cf , ACT_ADDR : cf , EXP_DATA : cc01b498, ACT_DATA : cc01b498 
# 'PASS' EXP_ADDR : d0 , ACT_ADDR : d0 , EXP_DATA : 25b27b4b, ACT_DATA : 25b27b4b 
# 'PASS' EXP_ADDR : d1 , ACT_ADDR : d1 , EXP_DATA : b98c4273, ACT_DATA : b98c4273 
# 'PASS' EXP_ADDR : d2 , ACT_ADDR : d2 , EXP_DATA : f622e6ec, ACT_DATA : f622e6ec 
# 'PASS' EXP_ADDR : d3 , ACT_ADDR : d3 , EXP_DATA : c550168a, ACT_DATA : c550168a 
# 'PASS' EXP_ADDR : d4 , ACT_ADDR : d4 , EXP_DATA : 2758d14e, ACT_DATA : 2758d14e 
# 'PASS' EXP_ADDR : d5 , ACT_ADDR : d5 , EXP_DATA : d44b80a8, ACT_DATA : d44b80a8 
# 'PASS' EXP_ADDR : d6 , ACT_ADDR : d6 , EXP_DATA : 549efda9, ACT_DATA : 549efda9 
# 'PASS' EXP_ADDR : d7 , ACT_ADDR : d7 , EXP_DATA : d0ca8ca1, ACT_DATA : d0ca8ca1 
# 'PASS' EXP_ADDR : d8 , ACT_ADDR : d8 , EXP_DATA : 70bb90e, ACT_DATA : 70bb90e 
# 'PASS' EXP_ADDR : d9 , ACT_ADDR : d9 , EXP_DATA : f33466e6, ACT_DATA : f33466e6 
# 'PASS' EXP_ADDR : da , ACT_ADDR : da , EXP_DATA : cfd6c09f, ACT_DATA : cfd6c09f 
# 'PASS' EXP_ADDR : db , ACT_ADDR : db , EXP_DATA : 152fb52a, ACT_DATA : 152fb52a 
# 'PASS' EXP_ADDR : dc , ACT_ADDR : dc , EXP_DATA : 155a1d2a, ACT_DATA : 155a1d2a 
# 'PASS' EXP_ADDR : dd , ACT_ADDR : dd , EXP_DATA : c6b5f48d, ACT_DATA : c6b5f48d 
# 'PASS' EXP_ADDR : de , ACT_ADDR : de , EXP_DATA : 4f75ff9e, ACT_DATA : 4f75ff9e 
# 'PASS' EXP_ADDR : df , ACT_ADDR : df , EXP_DATA : 9c6de638, ACT_DATA : 9c6de638 
# 'PASS' EXP_ADDR : e0 , ACT_ADDR : e0 , EXP_DATA : bccfa879, ACT_DATA : bccfa879 
# 'PASS' EXP_ADDR : e1 , ACT_ADDR : e1 , EXP_DATA : 6464e3c8, ACT_DATA : 6464e3c8 
